robinson_essential_business_soc_puma
…
## Warning: NAs introduced by coercion

count_puma_scc  #46,780 <16years or Not in Labor Force, Top 3 Professions 151252 .CMM-Software Developers ; #412031 .SAL-Retail Salespersons ; 252020 .EDU-Elementary And Middle School Teachers

## # A tibble: 454 x 2
##      SOCP     n
##     <dbl> <int>
##  1     NA 46780
##  2 151252  3766
##  3 412031  1170
##  4 252020  1166
##  5 132011  1119
##  6 412010  1081
##  7 436014   882
##  8 311122   875
##  9 291141   873
## 10 434051   865
## #  with 444 more rows
…
