robinson_essential_businesses_correlations
…
shelter_start <- "2020-03-16" %>% as.Date()

block_group_data <- sj_socialdistancing %>% 
  filter(date > shelter_start) %>%
  group_by(origin_census_block_group, ) %>% 
  summarize(
    completely_home_device_count = sum(completely_home_device_count),
    device_count = sum(device_count)) %>% 
  mutate(`% Completely at Home` = (completely_home_device_count/device_count*100) %>% round(1), 
         `% not completely at home` = (100 - `% Completely at Home`)) %>%  right_join(essential_workers_method1, by = c("origin_census_block_group" = "h_bg")) %>% 
  right_join(essential_workers_method2, by = c("origin_census_block_group" = "h_bg"))

block_group_data

## # A tibble: 568 x 7
##    origin_census_b completely_home device_count `% Completely a
##    <chr>                       <dbl>        <dbl>            <dbl>
##  1 060855001001                  671         1465             45.8
##  2 060855001002                  884         1892             46.7
##  3 060855001003                 1129         2382             47.4
##  4 060855001004                 1569         2878             54.5
##  5 060855002001                  583         1494             39  
##  6 060855002002                   13           70             18.6
##  7 060855002003                  424          998             42.5
##  8 060855002004                  769         1586             48.5
##  9 060855003001                  541         1844             29.3
## 10 060855003002                  972         2110             46.1
## #  with 558 more rows, and 3 more variables: `% not completely at home` <dbl>,
## #   fracMethod1 <dbl>, fracMethod2 <dbl>
…
